\BOOKMARK [0][-]{chapter.1}{Introducci\363n}{}% 1
\BOOKMARK [1][-]{section.1.1}{Requerimiento Funcional}{chapter.1}% 2
\BOOKMARK [0][-]{chapter.2}{Documentaci\363n del proceso}{}% 3
\BOOKMARK [1][-]{section.2.1}{Misi\363n}{chapter.2}% 4
\BOOKMARK [1][-]{section.2.2}{Visi\363n}{chapter.2}% 5
\BOOKMARK [1][-]{section.2.3}{Pol\355ticas}{chapter.2}% 6
\BOOKMARK [1][-]{section.2.4}{Reglas de negocio}{chapter.2}% 7
\BOOKMARK [1][-]{section.2.5}{\301reas y actores}{chapter.2}% 8
\BOOKMARK [1][-]{section.2.6}{BPMN}{chapter.2}% 9
\BOOKMARK [0][-]{chapter.3}{Modelo de Negocios}{}% 10
\BOOKMARK [1][-]{section.3.1}{Modelo de entidades del negocio}{chapter.3}% 11
\BOOKMARK [1][-]{section.3.2}{Descripci\363n de entidades del negocio}{chapter.3}% 12
\BOOKMARK [2][-]{subsection.3.2.1}{Atributos de ``Alumno''}{section.3.2}% 13
<<<<<<< HEAD
\BOOKMARK [1][-]{section.3.3}{CU1.2 Modificar programa acad\351mico }{chapter.3}% 14
\BOOKMARK [2][-]{subsection.3.3.1}{Descripci\363n completa}{section.3.3}% 15
\BOOKMARK [2][-]{subsection.3.3.2}{Atributos importantes}{section.3.3}% 16
\BOOKMARK [2][-]{subsection.3.3.3}{Trayectorias del Caso de Uso}{section.3.3}% 17
\BOOKMARK [0][-]{chapter.4}{Pantallas}{}% 18
\BOOKMARK [1][-]{subsection.4.0.1}{IU1-2-1 Programas acad\351micos}{chapter.4}% 19
\BOOKMARK [2][-]{subsection.4.0.2}{IU1-2-2 Consultar programa acad\351mico}{subsection.4.0.1}% 20
\BOOKMARK [2][-]{subsection.4.0.3}{IU1-2-3 Edici\363n de programa acad\351mico}{subsection.4.0.1}% 21
\BOOKMARK [2][-]{subsection.4.0.4}{IU1-2-4 Confirmaci\363n de edici\363n de programa acad\351mico}{subsection.4.0.1}% 22
\BOOKMARK [1][-]{section.4.1}{CU1-3 Consultar programa acad\351mico}{chapter.4}% 23
\BOOKMARK [2][-]{subsection.4.1.1}{Descripci\363n completa}{section.4.1}% 24
\BOOKMARK [2][-]{subsection.4.1.2}{Atributos importantes}{section.4.1}% 25
\BOOKMARK [2][-]{subsection.4.1.3}{Trayectorias del Caso de Uso}{section.4.1}% 26
\BOOKMARK [0][-]{chapter.5}{Reglas de negocio}{}% 27
\BOOKMARK [1][-]{section.5.1}{Reglas de Negocio}{chapter.5}% 28
\BOOKMARK [0][-]{chapter.6}{Pantallas}{}% 29
\BOOKMARK [1][-]{subsection.6.0.1}{IU1-3 Pantalla de Programas acad\351micos}{chapter.6}% 30
\BOOKMARK [1][-]{section.6.1}{CU1-4 Dar de baja programa acad\351mico}{chapter.6}% 31
\BOOKMARK [2][-]{subsection.6.1.1}{Descripci\363n completa}{section.6.1}% 32
\BOOKMARK [2][-]{subsection.6.1.2}{Atributos importantes}{section.6.1}% 33
\BOOKMARK [2][-]{subsection.6.1.3}{Trayectorias del Caso de Uso}{section.6.1}% 34
\BOOKMARK [0][-]{chapter.7}{Reglas de negocio}{}% 35
\BOOKMARK [1][-]{section.7.1}{Reglas de Negocio}{chapter.7}% 36
\BOOKMARK [0][-]{chapter.8}{Pantallas}{}% 37
\BOOKMARK [1][-]{subsection.8.0.1}{IU1-4 Pantalla Dar de Baja Programa acad\351mico}{chapter.8}% 38
\BOOKMARK [2][-]{subsection.8.0.2}{IU1-4-1 Pantalla Dar de Baja Programa acad\351mico confirmaci\363n}{subsection.8.0.1}% 39
\BOOKMARK [2][-]{subsection.8.0.3}{IU1-4-2 Pantalla Programas Acad\351micos actualizados}{subsection.8.0.1}% 40
\BOOKMARK [1][-]{section.8.1}{CU5-1 Registrar solicitud }{chapter.8}% 41
\BOOKMARK [2][-]{subsection.8.1.1}{Descripci\363n completa}{section.8.1}% 42
\BOOKMARK [2][-]{subsection.8.1.2}{Atributos importantes}{section.8.1}% 43
\BOOKMARK [2][-]{subsection.8.1.3}{Trayectorias del Caso de Uso}{section.8.1}% 44
\BOOKMARK [0][-]{chapter.9}{Pantallas}{}% 45
\BOOKMARK [1][-]{subsection.9.0.1}{IU5-1-1 Solicitudes}{chapter.9}% 46
\BOOKMARK [2][-]{subsection.9.0.2}{IU5-1-2 Registrar solicitud}{subsection.9.0.1}% 47
\BOOKMARK [2][-]{subsection.9.0.3}{IU5-1-3 Asignar responsable}{subsection.9.0.1}% 48
\BOOKMARK [2][-]{subsection.9.0.4}{IU5-1-4 Responsable asignado}{subsection.9.0.1}% 49
\BOOKMARK [2][-]{subsection.9.0.5}{IU5-1-5 Solicitud registrada}{subsection.9.0.1}% 50
\BOOKMARK [1][-]{section.9.1}{CU5.2 Consultar solicitud }{chapter.9}% 51
\BOOKMARK [2][-]{subsection.9.1.1}{Descripci\363n completa}{section.9.1}% 52
\BOOKMARK [2][-]{subsection.9.1.2}{Atributos importantes}{section.9.1}% 53
\BOOKMARK [2][-]{subsection.9.1.3}{Trayectorias del Caso de Uso}{section.9.1}% 54
\BOOKMARK [0][-]{chapter.10}{Pantallas}{}% 55
\BOOKMARK [1][-]{subsection.10.0.1}{IU5-2-1 Visualizar solicitudes}{chapter.10}% 56
\BOOKMARK [2][-]{subsection.10.0.2}{IU5-2-2 Visualizar solicitud}{subsection.10.0.1}% 57
\BOOKMARK [1][-]{section.10.1}{CU5.4 Modificar responsable }{chapter.10}% 58
\BOOKMARK [2][-]{subsection.10.1.1}{Descripci\363n completa}{section.10.1}% 59
\BOOKMARK [2][-]{subsection.10.1.2}{Atributos importantes}{section.10.1}% 60
\BOOKMARK [2][-]{subsection.10.1.3}{Trayectorias del Caso de Uso}{section.10.1}% 61
\BOOKMARK [0][-]{chapter.11}{Pantallas}{}% 62
\BOOKMARK [1][-]{subsection.11.0.1}{IU5-4-1 Editar responsable}{chapter.11}% 63
\BOOKMARK [2][-]{subsection.11.0.2}{IU5-4-2 Confirmaci\363n editar responsable}{subsection.11.0.1}% 64
\BOOKMARK [1][-]{section.11.1}{CU5-5 Dar de baja solicitud}{chapter.11}% 65
\BOOKMARK [2][-]{subsection.11.1.1}{Descripci\363n completa}{section.11.1}% 66
\BOOKMARK [2][-]{subsection.11.1.2}{Atributos importantes}{section.11.1}% 67
\BOOKMARK [2][-]{subsection.11.1.3}{Trayectorias del Caso de Uso}{section.11.1}% 68
\BOOKMARK [0][-]{chapter.12}{Pantallas}{}% 69
\BOOKMARK [1][-]{subsection.12.0.1}{IU5-5 Solicitudes}{chapter.12}% 70
\BOOKMARK [2][-]{subsection.12.0.2}{IU5-5-1 Pantalla Dar de Baja solicitud}{subsection.12.0.1}% 71
\BOOKMARK [2][-]{subsection.12.0.3}{IU5-5-2 Pantalla Dar de Baja solicitud confirmaci\363n}{subsection.12.0.1}% 72
=======
\BOOKMARK [1][-]{section.3.3}{CU1-1 Registrar programa academico}{chapter.3}% 14
\BOOKMARK [2][-]{subsection.3.3.1}{Descripci\363n completa}{section.3.3}% 15
\BOOKMARK [2][-]{subsection.3.3.2}{Atributos importantes}{section.3.3}% 16
\BOOKMARK [2][-]{subsection.3.3.3}{Trayectorias del Caso de Uso}{section.3.3}% 17
\BOOKMARK [0][-]{chapter.4}{Reglas de negocio}{}% 18
\BOOKMARK [1][-]{section.4.1}{Reglas de Negocio}{chapter.4}% 19
\BOOKMARK [0][-]{chapter.5}{Pantallas}{}% 20
\BOOKMARK [1][-]{subsection.5.0.1}{UI1-1-0 Menu Principal}{chapter.5}% 21
\BOOKMARK [2][-]{subsection.5.0.2}{UI1-1-1 Pantalla de Registro de programa acad\351mico}{subsection.5.0.1}% 22
\BOOKMARK [2][-]{subsection.5.0.3}{UI1-1-2 Pantalla campos obligatorios}{subsection.5.0.1}% 23
\BOOKMARK [2][-]{subsection.5.0.4}{UI1-1-3 Pantalla Programa acad\351mico existente}{subsection.5.0.1}% 24
\BOOKMARK [2][-]{subsection.5.0.5}{UI1-1-4 Pantalla cancelar operaci\363n}{subsection.5.0.1}% 25
\BOOKMARK [2][-]{subsection.5.0.6}{UI1-1-5 Pantalla campo no v\341lido}{subsection.5.0.1}% 26
\BOOKMARK [1][-]{section.5.1}{CU1-2 Modificar programa acad\351mico }{chapter.5}% 27
\BOOKMARK [2][-]{subsection.5.1.1}{Descripci\363n completa}{section.5.1}% 28
\BOOKMARK [2][-]{subsection.5.1.2}{Atributos importantes}{section.5.1}% 29
\BOOKMARK [2][-]{subsection.5.1.3}{Trayectorias del Caso de Uso}{section.5.1}% 30
\BOOKMARK [0][-]{chapter.6}{Pantallas}{}% 31
\BOOKMARK [1][-]{subsection.6.0.1}{IU1-2-1 Programas acad\351micos}{chapter.6}% 32
\BOOKMARK [2][-]{subsection.6.0.2}{IU1-2-2 Consultar programa acad\351mico}{subsection.6.0.1}% 33
\BOOKMARK [2][-]{subsection.6.0.3}{IU1-2-3 Edici\363n de programa acad\351mico}{subsection.6.0.1}% 34
\BOOKMARK [2][-]{subsection.6.0.4}{IU1-2-4 Confirmaci\363n de edici\363n de programa acad\351mico}{subsection.6.0.1}% 35
\BOOKMARK [1][-]{section.6.1}{CU1-3 Consultar programa acad\351mico}{chapter.6}% 36
\BOOKMARK [2][-]{subsection.6.1.1}{Descripci\363n completa}{section.6.1}% 37
\BOOKMARK [2][-]{subsection.6.1.2}{Atributos importantes}{section.6.1}% 38
\BOOKMARK [2][-]{subsection.6.1.3}{Trayectorias del Caso de Uso}{section.6.1}% 39
\BOOKMARK [0][-]{chapter.7}{Reglas de negocio}{}% 40
\BOOKMARK [1][-]{section.7.1}{Reglas de Negocio}{chapter.7}% 41
\BOOKMARK [0][-]{chapter.8}{Pantallas}{}% 42
\BOOKMARK [1][-]{subsection.8.0.1}{IU1-3 Pantalla de Programas acad\351micos}{chapter.8}% 43
\BOOKMARK [1][-]{section.8.1}{CU1-4 Dar de baja programa acad\351mico}{chapter.8}% 44
\BOOKMARK [2][-]{subsection.8.1.1}{Descripci\363n completa}{section.8.1}% 45
\BOOKMARK [2][-]{subsection.8.1.2}{Atributos importantes}{section.8.1}% 46
\BOOKMARK [2][-]{subsection.8.1.3}{Trayectorias del Caso de Uso}{section.8.1}% 47
\BOOKMARK [0][-]{chapter.9}{Reglas de negocio}{}% 48
\BOOKMARK [1][-]{section.9.1}{Reglas de Negocio}{chapter.9}% 49
\BOOKMARK [0][-]{chapter.10}{Pantallas}{}% 50
\BOOKMARK [1][-]{subsection.10.0.1}{IU1-4 Pantalla Dar de Baja Programa acad\351mico}{chapter.10}% 51
\BOOKMARK [2][-]{subsection.10.0.2}{IU1-4-1 Pantalla Dar de Baja Programa acad\351mico confirmaci\363n}{subsection.10.0.1}% 52
\BOOKMARK [2][-]{subsection.10.0.3}{IU1-4-2 Pantalla Programas Acad\351micos actualizados}{subsection.10.0.1}% 53
\BOOKMARK [1][-]{section.10.1}{CU5-1 Registrar solicitud }{chapter.10}% 54
\BOOKMARK [2][-]{subsection.10.1.1}{Descripci\363n completa}{section.10.1}% 55
\BOOKMARK [2][-]{subsection.10.1.2}{Atributos importantes}{section.10.1}% 56
\BOOKMARK [2][-]{subsection.10.1.3}{Trayectorias del Caso de Uso}{section.10.1}% 57
\BOOKMARK [0][-]{chapter.11}{Pantallas}{}% 58
\BOOKMARK [1][-]{subsection.11.0.1}{IU5-1-1 Solicitudes}{chapter.11}% 59
\BOOKMARK [2][-]{subsection.11.0.2}{IU5-1-2 Registrar solicitud}{subsection.11.0.1}% 60
\BOOKMARK [2][-]{subsection.11.0.3}{IU5-1-3 Asignar responsable}{subsection.11.0.1}% 61
\BOOKMARK [2][-]{subsection.11.0.4}{IU5-1-4 Responsable asignado}{subsection.11.0.1}% 62
\BOOKMARK [2][-]{subsection.11.0.5}{IU5-1-5 Solicitud registrada}{subsection.11.0.1}% 63
\BOOKMARK [1][-]{section.11.1}{CU5-2 Consultar solicitud }{chapter.11}% 64
\BOOKMARK [2][-]{subsection.11.1.1}{Descripci\363n completa}{section.11.1}% 65
\BOOKMARK [2][-]{subsection.11.1.2}{Atributos importantes}{section.11.1}% 66
\BOOKMARK [2][-]{subsection.11.1.3}{Trayectorias del Caso de Uso}{section.11.1}% 67
\BOOKMARK [0][-]{chapter.12}{Pantallas}{}% 68
\BOOKMARK [1][-]{subsection.12.0.1}{IU5-2-1 Visualizar solicitudes}{chapter.12}% 69
\BOOKMARK [2][-]{subsection.12.0.2}{IU5-2-2 Visualizar solicitud}{subsection.12.0.1}% 70
\BOOKMARK [1][-]{section.12.1}{CU5-3 Asignar Responsable}{chapter.12}% 71
\BOOKMARK [2][-]{subsection.12.1.1}{Descripci\363n completa}{section.12.1}% 72
\BOOKMARK [2][-]{subsection.12.1.2}{Atributos importantes}{section.12.1}% 73
\BOOKMARK [2][-]{subsection.12.1.3}{Trayectorias del Caso de Uso}{section.12.1}% 74
\BOOKMARK [0][-]{chapter.13}{Pantallas}{}% 75
\BOOKMARK [1][-]{subsection.13.0.1}{UI5-3-0 Menu Principal}{chapter.13}% 76
\BOOKMARK [2][-]{subsection.13.0.2}{UI5-3-1 Pantalla Asignar Responsable}{subsection.13.0.1}% 77
\BOOKMARK [2][-]{subsection.13.0.3}{UI5-3-2 Pantalla campos obligatorios}{subsection.13.0.1}% 78
\BOOKMARK [2][-]{subsection.13.0.4}{UI5-3-3 Pantalla Datos guardados del responsable}{subsection.13.0.1}% 79
\BOOKMARK [2][-]{subsection.13.0.5}{UI5-3-4 Pantalla cancelar operaci\363n}{subsection.13.0.1}% 80
\BOOKMARK [2][-]{subsection.13.0.6}{UI5-3-5 Responsable Asignado}{subsection.13.0.1}% 81
\BOOKMARK [1][-]{section.13.1}{CU5.4 Modificar responsable }{chapter.13}% 82
\BOOKMARK [2][-]{subsection.13.1.1}{Descripci\363n completa}{section.13.1}% 83
\BOOKMARK [2][-]{subsection.13.1.2}{Atributos importantes}{section.13.1}% 84
\BOOKMARK [2][-]{subsection.13.1.3}{Trayectorias del Caso de Uso}{section.13.1}% 85
\BOOKMARK [0][-]{chapter.14}{Pantallas}{}% 86
\BOOKMARK [1][-]{subsection.14.0.1}{IU5-4-1 Editar responsable}{chapter.14}% 87
\BOOKMARK [2][-]{subsection.14.0.2}{IU5-4-2 Confirmaci\363n editar responsable}{subsection.14.0.1}% 88
\BOOKMARK [1][-]{section.14.1}{CU5-5 Dar de baja solicitud}{chapter.14}% 89
\BOOKMARK [2][-]{subsection.14.1.1}{Descripci\363n completa}{section.14.1}% 90
\BOOKMARK [2][-]{subsection.14.1.2}{Atributos importantes}{section.14.1}% 91
\BOOKMARK [2][-]{subsection.14.1.3}{Trayectorias del Caso de Uso}{section.14.1}% 92
\BOOKMARK [0][-]{chapter.15}{Pantallas}{}% 93
\BOOKMARK [1][-]{subsection.15.0.1}{IU5-5 Solicitudes}{chapter.15}% 94
\BOOKMARK [2][-]{subsection.15.0.2}{IU5-5-1 Pantalla Dar de Baja solicitud}{subsection.15.0.1}% 95
\BOOKMARK [2][-]{subsection.15.0.3}{IU5-5-2 Pantalla Dar de Baja solicitud confirmaci\363n}{subsection.15.0.1}% 96
>>>>>>> Arturo-Analisis
