\relax 
\providecommand\hyper@newdestlabel[2]{}
\catcode `"\active 
\catcode `<\active 
\catcode `>\active 
\@nameuse{es@quoting}
\providecommand\HyperFirstAtBeginDocument{\AtBeginDocument}
\HyperFirstAtBeginDocument{\ifx\hyper@anchor\@undefined
\global\let\oldcontentsline\contentsline
\gdef\contentsline#1#2#3#4{\oldcontentsline{#1}{#2}{#3}}
\global\let\oldnewlabel\newlabel
\gdef\newlabel#1#2{\newlabelxx{#1}#2}
\gdef\newlabelxx#1#2#3#4#5#6{\oldnewlabel{#1}{{#2}{#3}}}
\AtEndDocument{\ifx\hyper@anchor\@undefined
\let\contentsline\oldcontentsline
\let\newlabel\oldnewlabel
\fi}
\fi}
\global\let\hyper@last\relax 
\gdef\HyperFirstAtBeginDocument#1{#1}
\providecommand\HyField@AuxAddToFields[1]{}
\providecommand\HyField@AuxAddToCoFields[2]{}
\babel@aux{spanish}{}
\@writefile{toc}{\contentsline {chapter}{\numberline {1}Introducci\'on}{1}{chapter.1}}
\@writefile{lof}{\addvspace {10\p@ }}
\@writefile{lot}{\addvspace {10\p@ }}
\@writefile{toc}{\contentsline {section}{\numberline {1.1}Requerimiento Funcional}{1}{section.1.1}}
\@writefile{toc}{\contentsline {chapter}{\numberline {2}Documentaci\'on del proceso}{2}{chapter.2}}
\@writefile{lof}{\addvspace {10\p@ }}
\@writefile{lot}{\addvspace {10\p@ }}
\@writefile{toc}{\contentsline {section}{\numberline {2.1}Misi\IeC {\'o}n}{2}{section.2.1}}
\@writefile{toc}{\contentsline {section}{\numberline {2.2}Visi\IeC {\'o}n}{2}{section.2.2}}
\@writefile{toc}{\contentsline {section}{\numberline {2.3}Pol\IeC {\'\i }ticas}{2}{section.2.3}}
\@writefile{toc}{\contentsline {section}{\numberline {2.4}Reglas de negocio}{2}{section.2.4}}
\@writefile{toc}{\contentsline {section}{\numberline {2.5}\IeC {\'A}reas y actores}{2}{section.2.5}}
\@writefile{toc}{\contentsline {section}{\numberline {2.6}BPMN}{2}{section.2.6}}
\@writefile{toc}{\contentsline {chapter}{\numberline {3}Modelo de Negocios}{3}{chapter.3}}
\@writefile{lof}{\addvspace {10\p@ }}
\@writefile{lot}{\addvspace {10\p@ }}
\@writefile{toc}{\contentsline {section}{\numberline {3.1}Modelo de entidades del negocio}{3}{section.3.1}}
\@writefile{lof}{\contentsline {figure}{\numberline {3.1}{\ignorespaces UML Diagrama de clases}}{3}{figure.3.1}}
\newlabel{fig:UMLDiagramadeClases}{{3.1}{3}{UML Diagrama de clases}{figure.3.1}{}}
\@writefile{toc}{\contentsline {section}{\numberline {3.2}Descripci\'on de entidades del negocio}{3}{section.3.2}}
\@writefile{toc}{\contentsline {subsection}{\numberline {3.2.1}Atributos de ``Alumno''}{4}{subsection.3.2.1}}
\gdef \LT@i {\LT@entry 
    {1}{111.50314pt}\LT@entry 
    {1}{364.9pt}}
<<<<<<< HEAD
\@writefile{toc}{\contentsline {section}{\numberline {3.3}CU1.2 Modificar programa acad\'emico }{5}{section.3.3}}
\@writefile{toc}{\contentsline {subsection}{\numberline {3.3.1}Descripci\IeC {\'o}n completa}{5}{subsection.3.3.1}}
\@writefile{toc}{\contentsline {subsection}{\numberline {3.3.2}Atributos importantes}{5}{subsection.3.3.2}}
\@writefile{toc}{\contentsline {subsection}{\numberline {3.3.3}Trayectorias del Caso de Uso}{5}{subsection.3.3.3}}
\@writefile{toc}{\contentsline {chapter}{\numberline {4}Pantallas}{6}{chapter.4}}
\@writefile{lof}{\addvspace {10\p@ }}
\@writefile{lot}{\addvspace {10\p@ }}
\@writefile{toc}{\contentsline {subsection}{\numberline {4.0.1}IU1-2-1 Programas acad\IeC {\'e}micos}{7}{subsection.4.0.1}}
\@writefile{toc}{\contentsline {subsubsection}{Objetivo}{7}{subsubsection*.1}}
\@writefile{toc}{\contentsline {subsubsection}{Dise\~no}{7}{subsubsection*.2}}
\@writefile{lof}{\contentsline {figure}{\numberline {4.1}{\ignorespaces UI1-2-1 Programas acad\IeC {\'e}micos}}{7}{figure.4.1}}
\newlabel{UI1-2-1}{{4.1}{7}{UI1-2-1 Programas académicos}{figure.4.1}{}}
\@writefile{toc}{\contentsline {subsubsection}{Salidas}{7}{subsubsection*.3}}
\@writefile{toc}{\contentsline {subsubsection}{Entradas}{7}{subsubsection*.4}}
\@writefile{toc}{\contentsline {subsection}{\numberline {4.0.2}IU1-2-2 Consultar programa acad\IeC {\'e}mico}{8}{subsection.4.0.2}}
\@writefile{toc}{\contentsline {subsubsection}{Objetivo}{8}{subsubsection*.5}}
\@writefile{toc}{\contentsline {subsubsection}{Dise\~no}{8}{subsubsection*.6}}
\@writefile{lof}{\contentsline {figure}{\numberline {4.2}{\ignorespaces UI1-2-2 Consultar programa acad\IeC {\'e}mico}}{8}{figure.4.2}}
\newlabel{UI1-2-2}{{4.2}{8}{UI1-2-2 Consultar programa académico}{figure.4.2}{}}
\@writefile{toc}{\contentsline {subsubsection}{Salidas}{8}{subsubsection*.7}}
\@writefile{toc}{\contentsline {subsubsection}{Entradas}{8}{subsubsection*.8}}
\@writefile{toc}{\contentsline {subsection}{\numberline {4.0.3}IU1-2-3 Edici\IeC {\'o}n de programa acad\IeC {\'e}mico}{9}{subsection.4.0.3}}
\@writefile{toc}{\contentsline {subsubsection}{Objetivo}{9}{subsubsection*.9}}
\@writefile{toc}{\contentsline {subsubsection}{Dise\~no}{9}{subsubsection*.10}}
\@writefile{lof}{\contentsline {figure}{\numberline {4.3}{\ignorespaces UI1-2-3 Edici\IeC {\'o}n de programa acad\IeC {\'e}mico}}{9}{figure.4.3}}
\newlabel{UI1-2-3}{{4.3}{9}{UI1-2-3 Edición de programa académico}{figure.4.3}{}}
\@writefile{toc}{\contentsline {subsubsection}{Salidas}{9}{subsubsection*.11}}
\@writefile{toc}{\contentsline {subsubsection}{Entradas}{9}{subsubsection*.12}}
\@writefile{toc}{\contentsline {subsubsection}{Comandos}{9}{subsubsection*.13}}
\@writefile{toc}{\contentsline {subsection}{\numberline {4.0.4}IU1-2-4 Confirmaci\IeC {\'o}n de edici\IeC {\'o}n de programa acad\IeC {\'e}mico}{10}{subsection.4.0.4}}
\@writefile{toc}{\contentsline {subsubsection}{Objetivo}{10}{subsubsection*.14}}
\@writefile{toc}{\contentsline {subsubsection}{Dise\~no}{10}{subsubsection*.15}}
\@writefile{lof}{\contentsline {figure}{\numberline {4.4}{\ignorespaces UI1-2-4 Confirmaci\IeC {\'o}n de edici\IeC {\'o}n de programa acad\IeC {\'e}mico}}{10}{figure.4.4}}
\newlabel{UI1-2-4}{{4.4}{10}{UI1-2-4 Confirmación de edición de programa académico}{figure.4.4}{}}
\@writefile{toc}{\contentsline {subsubsection}{Salidas}{10}{subsubsection*.16}}
\@writefile{toc}{\contentsline {subsubsection}{Entradas}{10}{subsubsection*.17}}
\@writefile{toc}{\contentsline {subsubsection}{Comandos}{10}{subsubsection*.18}}
\gdef \LT@ii {\LT@entry 
    {1}{111.50314pt}\LT@entry 
    {1}{364.9pt}}
\@writefile{toc}{\contentsline {section}{\numberline {4.1}CU1-3 Consultar programa acad\'emico}{11}{section.4.1}}
\@writefile{toc}{\contentsline {subsection}{\numberline {4.1.1}Descripci\IeC {\'o}n completa}{11}{subsection.4.1.1}}
\@writefile{toc}{\contentsline {subsection}{\numberline {4.1.2}Atributos importantes}{11}{subsection.4.1.2}}
\@writefile{toc}{\contentsline {subsection}{\numberline {4.1.3}Trayectorias del Caso de Uso}{11}{subsection.4.1.3}}
\newlabel{CU1-3Programas Acad\'emicos}{{1}{11}{Comandos}{Item.7}{}}
\@writefile{toc}{\contentsline {chapter}{\numberline {5}Reglas de negocio}{12}{chapter.5}}
\@writefile{lof}{\addvspace {10\p@ }}
\@writefile{lot}{\addvspace {10\p@ }}
\@writefile{toc}{\contentsline {section}{\numberline {5.1}Reglas de Negocio}{12}{section.5.1}}
\@writefile{toc}{\contentsline {chapter}{\numberline {6}Pantallas}{13}{chapter.6}}
\@writefile{lof}{\addvspace {10\p@ }}
\@writefile{lot}{\addvspace {10\p@ }}
\@writefile{toc}{\contentsline {subsection}{\numberline {6.0.1}IU1-3 Pantalla de Programas acad\'emicos}{13}{subsection.6.0.1}}
\@writefile{toc}{\contentsline {subsubsection}{Objetivo}{13}{subsubsection*.19}}
\@writefile{toc}{\contentsline {subsubsection}{Salidas}{13}{subsubsection*.20}}
\@writefile{toc}{\contentsline {subsubsection}{Entradas}{13}{subsubsection*.21}}
\@writefile{toc}{\contentsline {subsubsection}{Comandos}{13}{subsubsection*.22}}
\@writefile{lof}{\contentsline {figure}{\numberline {6.1}{\ignorespaces UI1-3 Pantalla de Programas acad\'emicos}}{14}{figure.6.1}}
\newlabel{UI1-3}{{6.1}{14}{UI1-3 Pantalla de Programas acad\'emicos}{figure.6.1}{}}
\@writefile{toc}{\contentsline {section}{\numberline {6.1}CU1-4 Dar de baja programa acad\'emico}{14}{section.6.1}}
\@writefile{toc}{\contentsline {subsection}{\numberline {6.1.1}Descripci\IeC {\'o}n completa}{14}{subsection.6.1.1}}
\@writefile{toc}{\contentsline {subsection}{\numberline {6.1.2}Atributos importantes}{14}{subsection.6.1.2}}
\gdef \LT@iii {\LT@entry 
    {1}{111.50314pt}\LT@entry 
    {1}{364.9pt}}
\@writefile{toc}{\contentsline {subsection}{\numberline {6.1.3}Trayectorias del Caso de Uso}{15}{subsection.6.1.3}}
\newlabel{CU1-3Programas Acad\'emicos}{{1}{15}{Comandos}{Item.11}{}}
\@writefile{toc}{\contentsline {chapter}{\numberline {7}Reglas de negocio}{17}{chapter.7}}
\@writefile{lof}{\addvspace {10\p@ }}
\@writefile{lot}{\addvspace {10\p@ }}
\@writefile{toc}{\contentsline {section}{\numberline {7.1}Reglas de Negocio}{17}{section.7.1}}
\@writefile{toc}{\contentsline {chapter}{\numberline {8}Pantallas}{18}{chapter.8}}
\@writefile{lof}{\addvspace {10\p@ }}
\@writefile{lot}{\addvspace {10\p@ }}
\@writefile{toc}{\contentsline {subsection}{\numberline {8.0.1}IU1-4 Pantalla Dar de Baja Programa acad\'emico}{18}{subsection.8.0.1}}
\@writefile{toc}{\contentsline {subsubsection}{Objetivo}{18}{subsubsection*.23}}
\@writefile{toc}{\contentsline {subsubsection}{Dise\~no}{18}{subsubsection*.24}}
\@writefile{toc}{\contentsline {subsubsection}{Salidas}{18}{subsubsection*.25}}
\@writefile{toc}{\contentsline {subsubsection}{Entradas}{18}{subsubsection*.26}}
\@writefile{toc}{\contentsline {subsubsection}{Comandos}{18}{subsubsection*.27}}
\@writefile{lof}{\contentsline {figure}{\numberline {8.1}{\ignorespaces UI1-4 Pantalla Dar de Baja Programa acad\'emico}}{19}{figure.8.1}}
\newlabel{UI1-4}{{8.1}{19}{UI1-4 Pantalla Dar de Baja Programa acad\'emico}{figure.8.1}{}}
\@writefile{toc}{\contentsline {subsubsection}{Mensajes}{19}{subsubsection*.28}}
\@writefile{toc}{\contentsline {subsection}{\numberline {8.0.2}IU1-4-1 Pantalla Dar de Baja Programa acad\'emico confirmaci\'on}{19}{subsection.8.0.2}}
\@writefile{toc}{\contentsline {subsubsection}{Objetivo}{19}{subsubsection*.29}}
\@writefile{toc}{\contentsline {subsubsection}{Dise\~no}{19}{subsubsection*.30}}
\@writefile{toc}{\contentsline {subsubsection}{Salidas}{19}{subsubsection*.31}}
\@writefile{lof}{\contentsline {figure}{\numberline {8.2}{\ignorespaces UI1-4 Pantalla Dar de Baja Programa acad\'emico}}{20}{figure.8.2}}
\newlabel{UI1-4}{{8.2}{20}{UI1-4 Pantalla Dar de Baja Programa acad\'emico}{figure.8.2}{}}
\@writefile{toc}{\contentsline {subsubsection}{Entradas}{20}{subsubsection*.32}}
\@writefile{toc}{\contentsline {subsubsection}{Comandos}{20}{subsubsection*.33}}
\@writefile{toc}{\contentsline {subsubsection}{Mensajes}{20}{subsubsection*.34}}
\@writefile{toc}{\contentsline {subsection}{\numberline {8.0.3}IU1-4-2 Pantalla Programas Acad\'emicos actualizados}{20}{subsection.8.0.3}}
\@writefile{toc}{\contentsline {subsubsection}{Objetivo}{20}{subsubsection*.35}}
\@writefile{lof}{\contentsline {figure}{\numberline {8.3}{\ignorespaces UI1-4-2 Pantalla Programas Acad\'emicos actualizados}}{21}{figure.8.3}}
\newlabel{UI1-4-2}{{8.3}{21}{UI1-4-2 Pantalla Programas Acad\'emicos actualizados}{figure.8.3}{}}
\@writefile{toc}{\contentsline {subsubsection}{Salidas}{21}{subsubsection*.36}}
\@writefile{toc}{\contentsline {subsubsection}{Entradas}{21}{subsubsection*.37}}
\@writefile{toc}{\contentsline {subsubsection}{Comandos}{21}{subsubsection*.38}}
\gdef \LT@iv {\LT@entry 
    {1}{111.50314pt}\LT@entry 
    {1}{364.9pt}}
\@writefile{toc}{\contentsline {section}{\numberline {8.1}CU5-1 Registrar solicitud }{22}{section.8.1}}
\@writefile{toc}{\contentsline {subsection}{\numberline {8.1.1}Descripci\IeC {\'o}n completa}{22}{subsection.8.1.1}}
\@writefile{toc}{\contentsline {subsection}{\numberline {8.1.2}Atributos importantes}{22}{subsection.8.1.2}}
\@writefile{toc}{\contentsline {subsection}{\numberline {8.1.3}Trayectorias del Caso de Uso}{22}{subsection.8.1.3}}
\@writefile{toc}{\contentsline {chapter}{\numberline {9}Pantallas}{24}{chapter.9}}
\@writefile{lof}{\addvspace {10\p@ }}
\@writefile{lot}{\addvspace {10\p@ }}
\@writefile{toc}{\contentsline {subsection}{\numberline {9.0.1}IU5-1-1 Solicitudes}{25}{subsection.9.0.1}}
\@writefile{toc}{\contentsline {subsubsection}{Objetivo}{25}{subsubsection*.39}}
\@writefile{toc}{\contentsline {subsubsection}{Dise\~no}{25}{subsubsection*.40}}
\@writefile{lof}{\contentsline {figure}{\numberline {9.1}{\ignorespaces UI5-1-1 Solicitudes}}{25}{figure.9.1}}
\newlabel{UI5-1-1}{{9.1}{25}{UI5-1-1 Solicitudes}{figure.9.1}{}}
\@writefile{toc}{\contentsline {subsubsection}{Salidas}{25}{subsubsection*.41}}
\@writefile{toc}{\contentsline {subsubsection}{Entradas}{25}{subsubsection*.42}}
\@writefile{toc}{\contentsline {subsubsection}{Comandos}{25}{subsubsection*.43}}
\@writefile{toc}{\contentsline {subsection}{\numberline {9.0.2}IU5-1-2 Registrar solicitud}{26}{subsection.9.0.2}}
\@writefile{toc}{\contentsline {subsubsection}{Objetivo}{26}{subsubsection*.44}}
\@writefile{toc}{\contentsline {subsubsection}{Dise\~no}{26}{subsubsection*.45}}
\@writefile{lof}{\contentsline {figure}{\numberline {9.2}{\ignorespaces UI5-1-2 Registrar solicitud}}{26}{figure.9.2}}
\newlabel{UI5-1-2}{{9.2}{26}{UI5-1-2 Registrar solicitud}{figure.9.2}{}}
\@writefile{toc}{\contentsline {subsubsection}{Salidas}{26}{subsubsection*.46}}
\@writefile{toc}{\contentsline {subsubsection}{Entradas}{26}{subsubsection*.47}}
\@writefile{toc}{\contentsline {subsubsection}{Comandos}{26}{subsubsection*.48}}
\@writefile{toc}{\contentsline {subsection}{\numberline {9.0.3}IU5-1-3 Asignar responsable}{28}{subsection.9.0.3}}
\@writefile{toc}{\contentsline {subsubsection}{Objetivo}{28}{subsubsection*.49}}
\@writefile{toc}{\contentsline {subsubsection}{Dise\~no}{28}{subsubsection*.50}}
\@writefile{lof}{\contentsline {figure}{\numberline {9.3}{\ignorespaces UI5-1-3 Asignar responsable}}{28}{figure.9.3}}
\newlabel{UI5-1-3}{{9.3}{28}{UI5-1-3 Asignar responsable}{figure.9.3}{}}
\@writefile{toc}{\contentsline {subsubsection}{Salidas}{28}{subsubsection*.51}}
\@writefile{toc}{\contentsline {subsubsection}{Entradas}{28}{subsubsection*.52}}
\@writefile{toc}{\contentsline {subsubsection}{Comandos}{28}{subsubsection*.53}}
\@writefile{toc}{\contentsline {subsection}{\numberline {9.0.4}IU5-1-4 Responsable asignado}{30}{subsection.9.0.4}}
\@writefile{toc}{\contentsline {subsubsection}{Objetivo}{30}{subsubsection*.54}}
\@writefile{toc}{\contentsline {subsubsection}{Dise\~no}{30}{subsubsection*.55}}
\@writefile{lof}{\contentsline {figure}{\numberline {9.4}{\ignorespaces UI5-1-4 Responsable asignado}}{30}{figure.9.4}}
\newlabel{UI5-1-4}{{9.4}{30}{UI5-1-4 Responsable asignado}{figure.9.4}{}}
\@writefile{toc}{\contentsline {subsubsection}{Salidas}{30}{subsubsection*.56}}
\@writefile{toc}{\contentsline {subsubsection}{Entradas}{30}{subsubsection*.57}}
\@writefile{toc}{\contentsline {subsubsection}{Comandos}{30}{subsubsection*.58}}
\@writefile{toc}{\contentsline {subsection}{\numberline {9.0.5}IU5-1-5 Solicitud registrada}{31}{subsection.9.0.5}}
\@writefile{toc}{\contentsline {subsubsection}{Objetivo}{31}{subsubsection*.59}}
\@writefile{toc}{\contentsline {subsubsection}{Dise\~no}{31}{subsubsection*.60}}
\@writefile{lof}{\contentsline {figure}{\numberline {9.5}{\ignorespaces UI5-1-5 Solicitud registrada}}{31}{figure.9.5}}
\newlabel{UI5-1-5}{{9.5}{31}{UI5-1-5 Solicitud registrada}{figure.9.5}{}}
\@writefile{toc}{\contentsline {subsubsection}{Salidas}{31}{subsubsection*.61}}
\@writefile{toc}{\contentsline {subsubsection}{Entradas}{31}{subsubsection*.62}}
\@writefile{toc}{\contentsline {subsubsection}{Comandos}{31}{subsubsection*.63}}
\gdef \LT@v {\LT@entry 
    {1}{111.50314pt}\LT@entry 
    {1}{364.9pt}}
\@writefile{toc}{\contentsline {section}{\numberline {9.1}CU5.2 Consultar solicitud }{32}{section.9.1}}
\@writefile{toc}{\contentsline {subsection}{\numberline {9.1.1}Descripci\IeC {\'o}n completa}{32}{subsection.9.1.1}}
\@writefile{toc}{\contentsline {subsection}{\numberline {9.1.2}Atributos importantes}{32}{subsection.9.1.2}}
\@writefile{toc}{\contentsline {subsection}{\numberline {9.1.3}Trayectorias del Caso de Uso}{32}{subsection.9.1.3}}
\@writefile{toc}{\contentsline {chapter}{\numberline {10}Pantallas}{33}{chapter.10}}
\@writefile{lof}{\addvspace {10\p@ }}
\@writefile{lot}{\addvspace {10\p@ }}
\@writefile{toc}{\contentsline {subsection}{\numberline {10.0.1}IU5-2-1 Visualizar solicitudes}{34}{subsection.10.0.1}}
\@writefile{toc}{\contentsline {subsubsection}{Objetivo}{34}{subsubsection*.64}}
\@writefile{toc}{\contentsline {subsubsection}{Dise\~no}{34}{subsubsection*.65}}
\@writefile{lof}{\contentsline {figure}{\numberline {10.1}{\ignorespaces UI5-2-1 Visualizar solicitudes}}{34}{figure.10.1}}
\newlabel{UI5-2-1}{{10.1}{34}{UI5-2-1 Visualizar solicitudes}{figure.10.1}{}}
\@writefile{toc}{\contentsline {subsubsection}{Salidas}{34}{subsubsection*.66}}
\@writefile{toc}{\contentsline {subsubsection}{Entradas}{34}{subsubsection*.67}}
\@writefile{toc}{\contentsline {subsection}{\numberline {10.0.2}IU5-2-2 Visualizar solicitud}{35}{subsection.10.0.2}}
\@writefile{toc}{\contentsline {subsubsection}{Objetivo}{35}{subsubsection*.68}}
\@writefile{toc}{\contentsline {subsubsection}{Dise\~no}{35}{subsubsection*.69}}
\@writefile{lof}{\contentsline {figure}{\numberline {10.2}{\ignorespaces UI5-2-2 Visualizar solicitud}}{35}{figure.10.2}}
\newlabel{UI5-2-2}{{10.2}{35}{UI5-2-2 Visualizar solicitud}{figure.10.2}{}}
\@writefile{toc}{\contentsline {subsubsection}{Salidas}{35}{subsubsection*.70}}
\@writefile{toc}{\contentsline {subsubsection}{Entradas}{35}{subsubsection*.71}}
\gdef \LT@vi {\LT@entry 
    {1}{111.50314pt}\LT@entry 
    {1}{364.9pt}}
\@writefile{toc}{\contentsline {section}{\numberline {10.1}CU5.4 Modificar responsable }{36}{section.10.1}}
\@writefile{toc}{\contentsline {subsection}{\numberline {10.1.1}Descripci\IeC {\'o}n completa}{36}{subsection.10.1.1}}
\@writefile{toc}{\contentsline {subsection}{\numberline {10.1.2}Atributos importantes}{36}{subsection.10.1.2}}
\@writefile{toc}{\contentsline {subsection}{\numberline {10.1.3}Trayectorias del Caso de Uso}{36}{subsection.10.1.3}}
\@writefile{toc}{\contentsline {chapter}{\numberline {11}Pantallas}{37}{chapter.11}}
\@writefile{lof}{\addvspace {10\p@ }}
\@writefile{lot}{\addvspace {10\p@ }}
\@writefile{toc}{\contentsline {subsection}{\numberline {11.0.1}IU5-4-1 Editar responsable}{38}{subsection.11.0.1}}
\@writefile{toc}{\contentsline {subsubsection}{Objetivo}{38}{subsubsection*.72}}
\@writefile{toc}{\contentsline {subsubsection}{Dise\~no}{38}{subsubsection*.73}}
\@writefile{lof}{\contentsline {figure}{\numberline {11.1}{\ignorespaces UI5-4-1 Editar responsable}}{38}{figure.11.1}}
\newlabel{UI5-4-1}{{11.1}{38}{UI5-4-1 Editar responsable}{figure.11.1}{}}
\@writefile{toc}{\contentsline {subsubsection}{Salidas}{38}{subsubsection*.74}}
\@writefile{toc}{\contentsline {subsubsection}{Entradas}{38}{subsubsection*.75}}
\@writefile{toc}{\contentsline {subsection}{\numberline {11.0.2}IU5-4-2 Confirmaci\IeC {\'o}n editar responsable}{39}{subsection.11.0.2}}
\@writefile{toc}{\contentsline {subsubsection}{Objetivo}{39}{subsubsection*.76}}
\@writefile{toc}{\contentsline {subsubsection}{Dise\~no}{39}{subsubsection*.77}}
\@writefile{lof}{\contentsline {figure}{\numberline {11.2}{\ignorespaces UI5-4-2 Confirmaci\IeC {\'o}n editar responsable}}{39}{figure.11.2}}
\newlabel{UI5-4-2}{{11.2}{39}{UI5-4-2 Confirmación editar responsable}{figure.11.2}{}}
\@writefile{toc}{\contentsline {subsubsection}{Salidas}{39}{subsubsection*.78}}
\@writefile{toc}{\contentsline {subsubsection}{Entradas}{39}{subsubsection*.79}}
\@writefile{toc}{\contentsline {subsubsection}{Comandos}{39}{subsubsection*.80}}
\gdef \LT@vii {\LT@entry 
    {1}{111.50314pt}\LT@entry 
    {1}{364.9pt}}
\@writefile{toc}{\contentsline {section}{\numberline {11.1}CU5-5 Dar de baja solicitud}{40}{section.11.1}}
\@writefile{toc}{\contentsline {subsection}{\numberline {11.1.1}Descripci\IeC {\'o}n completa}{40}{subsection.11.1.1}}
\@writefile{toc}{\contentsline {subsection}{\numberline {11.1.2}Atributos importantes}{40}{subsection.11.1.2}}
\@writefile{toc}{\contentsline {subsection}{\numberline {11.1.3}Trayectorias del Caso de Uso}{40}{subsection.11.1.3}}
\newlabel{Solicitudes}{{1}{40}{Comandos}{Item.51}{}}
\@writefile{toc}{\contentsline {chapter}{\numberline {12}Pantallas}{42}{chapter.12}}
\@writefile{lof}{\addvspace {10\p@ }}
\@writefile{lot}{\addvspace {10\p@ }}
\@writefile{toc}{\contentsline {subsection}{\numberline {12.0.1}IU5-5 Solicitudes}{42}{subsection.12.0.1}}
\@writefile{toc}{\contentsline {subsubsection}{Objetivo}{42}{subsubsection*.81}}
\@writefile{toc}{\contentsline {subsubsection}{Dise\~no}{42}{subsubsection*.82}}
\@writefile{toc}{\contentsline {subsubsection}{Salidas}{42}{subsubsection*.83}}
\@writefile{toc}{\contentsline {subsubsection}{Comandos}{42}{subsubsection*.84}}
\@writefile{toc}{\contentsline {subsection}{\numberline {12.0.2}IU5-5-1 Pantalla Dar de Baja solicitud}{42}{subsection.12.0.2}}
\@writefile{toc}{\contentsline {subsubsection}{Objetivo}{42}{subsubsection*.85}}
\@writefile{toc}{\contentsline {subsubsection}{Dise\~no}{42}{subsubsection*.86}}
\@writefile{lof}{\contentsline {figure}{\numberline {12.1}{\ignorespaces UI5-5 Solicitudes}}{43}{figure.12.1}}
\newlabel{UI5-5}{{12.1}{43}{UI5-5 Solicitudes}{figure.12.1}{}}
\@writefile{toc}{\contentsline {subsubsection}{Salidas}{43}{subsubsection*.87}}
\@writefile{toc}{\contentsline {subsubsection}{Entradas}{43}{subsubsection*.88}}
\@writefile{toc}{\contentsline {subsubsection}{Comandos}{43}{subsubsection*.89}}
\@writefile{toc}{\contentsline {subsubsection}{Mensajes}{43}{subsubsection*.90}}
\@writefile{toc}{\contentsline {subsection}{\numberline {12.0.3}IU5-5-2 Pantalla Dar de Baja solicitud confirmaci\'on}{43}{subsection.12.0.3}}
\@writefile{lof}{\contentsline {figure}{\numberline {12.2}{\ignorespaces UI5-5-1 Pantalla Dar de Baja solicitud}}{44}{figure.12.2}}
\newlabel{UI5-5-1}{{12.2}{44}{UI5-5-1 Pantalla Dar de Baja solicitud}{figure.12.2}{}}
\@writefile{toc}{\contentsline {subsubsection}{Objetivo}{44}{subsubsection*.91}}
\@writefile{toc}{\contentsline {subsubsection}{Dise\~no}{44}{subsubsection*.92}}
\@writefile{toc}{\contentsline {subsubsection}{Salidas}{44}{subsubsection*.93}}
\@writefile{toc}{\contentsline {subsubsection}{Entradas}{44}{subsubsection*.94}}
\@writefile{toc}{\contentsline {subsubsection}{Comandos}{44}{subsubsection*.95}}
\@writefile{lof}{\contentsline {figure}{\numberline {12.3}{\ignorespaces UI5-5-2 Pantalla Dar de Baja solicitud confirmaci\'on}}{45}{figure.12.3}}
\newlabel{UI5-5-2}{{12.3}{45}{UI5-5-2 Pantalla Dar de Baja solicitud confirmaci\'on}{figure.12.3}{}}
\@writefile{toc}{\contentsline {subsubsection}{Mensajes}{45}{subsubsection*.96}}
=======
\@writefile{toc}{\contentsline {section}{\numberline {3.3}CU1-1 Registrar programa academico}{5}{section.3.3}}
\@writefile{toc}{\contentsline {subsection}{\numberline {3.3.1}Descripci\IeC {\'o}n completa}{5}{subsection.3.3.1}}
\@writefile{toc}{\contentsline {subsection}{\numberline {3.3.2}Atributos importantes}{5}{subsection.3.3.2}}
\@writefile{toc}{\contentsline {subsection}{\numberline {3.3.3}Trayectorias del Caso de Uso}{5}{subsection.3.3.3}}
\@writefile{toc}{\contentsline {chapter}{\numberline {4}Reglas de negocio}{7}{chapter.4}}
\@writefile{lof}{\addvspace {10\p@ }}
\@writefile{lot}{\addvspace {10\p@ }}
\@writefile{toc}{\contentsline {section}{\numberline {4.1}Reglas de Negocio}{7}{section.4.1}}
\@writefile{toc}{\contentsline {chapter}{\numberline {5}Pantallas}{8}{chapter.5}}
\@writefile{lof}{\addvspace {10\p@ }}
\@writefile{lot}{\addvspace {10\p@ }}
\@writefile{toc}{\contentsline {subsection}{\numberline {5.0.1}UI1-1-0 Menu Principal}{9}{subsection.5.0.1}}
\@writefile{toc}{\contentsline {subsubsection}{Objetivo}{9}{subsubsection*.1}}
\@writefile{toc}{\contentsline {subsubsection}{Dise\~no}{9}{subsubsection*.2}}
\@writefile{lof}{\contentsline {figure}{\numberline {5.1}{\ignorespaces UI1-1-0 Menu Principal}}{9}{figure.5.1}}
\newlabel{UI1-1-0}{{5.1}{9}{UI1-1-0 Menu Principal}{figure.5.1}{}}
\@writefile{toc}{\contentsline {subsubsection}{Salidas}{9}{subsubsection*.3}}
\@writefile{toc}{\contentsline {subsection}{\numberline {5.0.2}UI1-1-1 Pantalla de Registro de programa acad\'emico}{9}{subsection.5.0.2}}
\@writefile{toc}{\contentsline {subsubsection}{Objetivo}{9}{subsubsection*.4}}
\@writefile{toc}{\contentsline {subsubsection}{Dise\~no}{10}{subsubsection*.5}}
\@writefile{lof}{\contentsline {figure}{\numberline {5.2}{\ignorespaces UI1-1-2 Registrar Programa acad\'emico}}{10}{figure.5.2}}
\newlabel{UI1-1-2}{{5.2}{10}{UI1-1-2 Registrar Programa acad\'emico}{figure.5.2}{}}
\@writefile{toc}{\contentsline {subsubsection}{Salidas}{10}{subsubsection*.6}}
\@writefile{toc}{\contentsline {subsubsection}{Entradas}{10}{subsubsection*.7}}
\@writefile{toc}{\contentsline {subsection}{\numberline {5.0.3}UI1-1-2 Pantalla campos obligatorios}{10}{subsection.5.0.3}}
\@writefile{toc}{\contentsline {subsubsection}{Objetivo}{10}{subsubsection*.8}}
\@writefile{toc}{\contentsline {subsubsection}{Dise\~no}{10}{subsubsection*.9}}
\@writefile{lof}{\contentsline {figure}{\numberline {5.3}{\ignorespaces UI1-1-3 Registro Exitoso}}{11}{figure.5.3}}
\newlabel{UI1-1-3}{{5.3}{11}{UI1-1-3 Registro Exitoso}{figure.5.3}{}}
\@writefile{toc}{\contentsline {subsubsection}{Salidas}{11}{subsubsection*.10}}
\@writefile{toc}{\contentsline {subsubsection}{Entradas}{11}{subsubsection*.11}}
\@writefile{toc}{\contentsline {subsection}{\numberline {5.0.4}UI1-1-3 Pantalla Programa acad\'emico existente}{11}{subsection.5.0.4}}
\@writefile{toc}{\contentsline {subsubsection}{Objetivo}{11}{subsubsection*.12}}
\@writefile{toc}{\contentsline {subsubsection}{Dise\~no}{11}{subsubsection*.13}}
\@writefile{toc}{\contentsline {subsubsection}{Salidas}{11}{subsubsection*.14}}
\@writefile{lof}{\contentsline {figure}{\numberline {5.4}{\ignorespaces UI1-1-4 Campos Obligatorios}}{12}{figure.5.4}}
\newlabel{UI1-1-4}{{5.4}{12}{UI1-1-4 Campos Obligatorios}{figure.5.4}{}}
\@writefile{toc}{\contentsline {subsubsection}{Entradas}{12}{subsubsection*.15}}
\@writefile{toc}{\contentsline {subsection}{\numberline {5.0.5}UI1-1-4 Pantalla cancelar operaci\'on}{12}{subsection.5.0.5}}
\@writefile{toc}{\contentsline {subsubsection}{Objetivo}{12}{subsubsection*.16}}
\@writefile{toc}{\contentsline {subsubsection}{Dise\~no}{12}{subsubsection*.17}}
\@writefile{toc}{\contentsline {subsubsection}{Salidas}{12}{subsubsection*.18}}
\@writefile{toc}{\contentsline {subsubsection}{Entradas}{12}{subsubsection*.19}}
\@writefile{lof}{\contentsline {figure}{\numberline {5.5}{\ignorespaces UI1-1-5 Programa acad\'emico exitente}}{13}{figure.5.5}}
\newlabel{UI1-1-5}{{5.5}{13}{UI1-1-5 Programa acad\'emico exitente}{figure.5.5}{}}
\@writefile{toc}{\contentsline {subsection}{\numberline {5.0.6}UI1-1-5 Pantalla campo no v\'alido}{13}{subsection.5.0.6}}
\@writefile{toc}{\contentsline {subsubsection}{Objetivo}{13}{subsubsection*.20}}
\@writefile{toc}{\contentsline {subsubsection}{Dise\~no}{13}{subsubsection*.21}}
\@writefile{toc}{\contentsline {subsubsection}{Salidas}{13}{subsubsection*.22}}
\@writefile{toc}{\contentsline {subsubsection}{Entradas}{13}{subsubsection*.23}}
\gdef \LT@ii {\LT@entry 
    {1}{111.50314pt}\LT@entry 
    {1}{364.9pt}}
\@writefile{lof}{\contentsline {figure}{\numberline {5.6}{\ignorespaces UI1-1-6 Abandonar Operaci\'on}}{14}{figure.5.6}}
\newlabel{UI1-1-6}{{5.6}{14}{UI1-1-6 Abandonar Operaci\'on}{figure.5.6}{}}
\@writefile{toc}{\contentsline {section}{\numberline {5.1}CU1-2 Modificar programa acad\'emico }{14}{section.5.1}}
\@writefile{toc}{\contentsline {subsection}{\numberline {5.1.1}Descripci\IeC {\'o}n completa}{14}{subsection.5.1.1}}
\@writefile{toc}{\contentsline {subsection}{\numberline {5.1.2}Atributos importantes}{14}{subsection.5.1.2}}
\@writefile{toc}{\contentsline {subsection}{\numberline {5.1.3}Trayectorias del Caso de Uso}{15}{subsection.5.1.3}}
\@writefile{lof}{\contentsline {figure}{\numberline {5.7}{\ignorespaces UI1-1-7 Campo no v\'alido}}{16}{figure.5.7}}
\newlabel{UI1-1-7}{{5.7}{16}{UI1-1-7 Campo no v\'alido}{figure.5.7}{}}
\@writefile{toc}{\contentsline {chapter}{\numberline {6}Pantallas}{17}{chapter.6}}
\@writefile{lof}{\addvspace {10\p@ }}
\@writefile{lot}{\addvspace {10\p@ }}
\@writefile{toc}{\contentsline {subsection}{\numberline {6.0.1}IU1-2-1 Programas acad\'emicos}{18}{subsection.6.0.1}}
\@writefile{toc}{\contentsline {subsubsection}{Objetivo}{18}{subsubsection*.24}}
\@writefile{toc}{\contentsline {subsubsection}{Dise\~no}{18}{subsubsection*.25}}
\@writefile{lof}{\contentsline {figure}{\numberline {6.1}{\ignorespaces UI1-2-1 Programas acad\'emicos}}{18}{figure.6.1}}
\newlabel{UI1-2-1}{{6.1}{18}{UI1-2-1 Programas acad\'emicos}{figure.6.1}{}}
\@writefile{toc}{\contentsline {subsubsection}{Salidas}{18}{subsubsection*.26}}
\@writefile{toc}{\contentsline {subsubsection}{Entradas}{18}{subsubsection*.27}}
\@writefile{toc}{\contentsline {subsection}{\numberline {6.0.2}IU1-2-2 Consultar programa acad\'emico}{19}{subsection.6.0.2}}
\@writefile{toc}{\contentsline {subsubsection}{Objetivo}{19}{subsubsection*.28}}
\@writefile{toc}{\contentsline {subsubsection}{Dise\~no}{19}{subsubsection*.29}}
\@writefile{lof}{\contentsline {figure}{\numberline {6.2}{\ignorespaces UI1-2-2 Consultar programa acad\'emico}}{19}{figure.6.2}}
\newlabel{UI1-2-2}{{6.2}{19}{UI1-2-2 Consultar programa acad\'emico}{figure.6.2}{}}
\@writefile{toc}{\contentsline {subsubsection}{Salidas}{19}{subsubsection*.30}}
\@writefile{toc}{\contentsline {subsubsection}{Entradas}{19}{subsubsection*.31}}
\@writefile{toc}{\contentsline {subsection}{\numberline {6.0.3}IU1-2-3 Edici\'on de programa acad\'emico}{20}{subsection.6.0.3}}
\@writefile{toc}{\contentsline {subsubsection}{Objetivo}{20}{subsubsection*.32}}
\@writefile{toc}{\contentsline {subsubsection}{Dise\~no}{20}{subsubsection*.33}}
\@writefile{lof}{\contentsline {figure}{\numberline {6.3}{\ignorespaces UI1-2-3 Edici\'on de programa acad\'emico}}{20}{figure.6.3}}
\newlabel{UI1-2-3}{{6.3}{20}{UI1-2-3 Edici\'on de programa acad\'emico}{figure.6.3}{}}
\@writefile{toc}{\contentsline {subsubsection}{Salidas}{20}{subsubsection*.34}}
\@writefile{toc}{\contentsline {subsubsection}{Entradas}{20}{subsubsection*.35}}
\@writefile{toc}{\contentsline {subsubsection}{Comandos}{20}{subsubsection*.36}}
\@writefile{toc}{\contentsline {subsection}{\numberline {6.0.4}IU1-2-4 Confirmaci\'on de edici\'on de programa acad\'emico}{21}{subsection.6.0.4}}
\@writefile{toc}{\contentsline {subsubsection}{Objetivo}{21}{subsubsection*.37}}
\@writefile{toc}{\contentsline {subsubsection}{Dise\~no}{21}{subsubsection*.38}}
\@writefile{lof}{\contentsline {figure}{\numberline {6.4}{\ignorespaces UI1-2-4 Confirmaci\'on de edici\'on de programa acad\'emico}}{21}{figure.6.4}}
\newlabel{UI1-2-4}{{6.4}{21}{UI1-2-4 Confirmaci\'on de edici\'on de programa acad\'emico}{figure.6.4}{}}
\@writefile{toc}{\contentsline {subsubsection}{Salidas}{21}{subsubsection*.39}}
\@writefile{toc}{\contentsline {subsubsection}{Entradas}{21}{subsubsection*.40}}
\@writefile{toc}{\contentsline {subsubsection}{Comandos}{21}{subsubsection*.41}}
\gdef \LT@iii {\LT@entry 
    {1}{111.50314pt}\LT@entry 
    {1}{364.9pt}}
\@writefile{toc}{\contentsline {section}{\numberline {6.1}CU1-3 Consultar programa acad\'emico}{22}{section.6.1}}
\@writefile{toc}{\contentsline {subsection}{\numberline {6.1.1}Descripci\IeC {\'o}n completa}{22}{subsection.6.1.1}}
\@writefile{toc}{\contentsline {subsection}{\numberline {6.1.2}Atributos importantes}{22}{subsection.6.1.2}}
\@writefile{toc}{\contentsline {subsection}{\numberline {6.1.3}Trayectorias del Caso de Uso}{22}{subsection.6.1.3}}
\newlabel{CU1-3Programas Acad\'emicos}{{1}{22}{Comandos}{Item.21}{}}
\@writefile{toc}{\contentsline {chapter}{\numberline {7}Reglas de negocio}{23}{chapter.7}}
\@writefile{lof}{\addvspace {10\p@ }}
\@writefile{lot}{\addvspace {10\p@ }}
\@writefile{toc}{\contentsline {section}{\numberline {7.1}Reglas de Negocio}{23}{section.7.1}}
\@writefile{toc}{\contentsline {chapter}{\numberline {8}Pantallas}{24}{chapter.8}}
\@writefile{lof}{\addvspace {10\p@ }}
\@writefile{lot}{\addvspace {10\p@ }}
\@writefile{toc}{\contentsline {subsection}{\numberline {8.0.1}IU1-3 Pantalla de Programas acad\'emicos}{24}{subsection.8.0.1}}
\@writefile{toc}{\contentsline {subsubsection}{Objetivo}{24}{subsubsection*.42}}
\@writefile{lof}{\contentsline {figure}{\numberline {8.1}{\ignorespaces UI1-3 Pantalla de Programas acad\'emicos}}{24}{figure.8.1}}
\newlabel{UI1-3}{{8.1}{24}{UI1-3 Pantalla de Programas acad\'emicos}{figure.8.1}{}}
\@writefile{toc}{\contentsline {subsubsection}{Salidas}{25}{subsubsection*.43}}
\@writefile{toc}{\contentsline {subsubsection}{Entradas}{25}{subsubsection*.44}}
\@writefile{toc}{\contentsline {subsubsection}{Comandos}{25}{subsubsection*.45}}
\gdef \LT@iv {\LT@entry 
    {1}{111.50314pt}\LT@entry 
    {1}{364.9pt}}
\@writefile{toc}{\contentsline {section}{\numberline {8.1}CU1-4 Dar de baja programa acad\'emico}{26}{section.8.1}}
\@writefile{toc}{\contentsline {subsection}{\numberline {8.1.1}Descripci\IeC {\'o}n completa}{26}{subsection.8.1.1}}
\@writefile{toc}{\contentsline {subsection}{\numberline {8.1.2}Atributos importantes}{26}{subsection.8.1.2}}
\@writefile{toc}{\contentsline {subsection}{\numberline {8.1.3}Trayectorias del Caso de Uso}{26}{subsection.8.1.3}}
\newlabel{CU1-3Programas Acad\'emicos}{{1}{26}{Comandos}{Item.25}{}}
\@writefile{toc}{\contentsline {chapter}{\numberline {9}Reglas de negocio}{28}{chapter.9}}
\@writefile{lof}{\addvspace {10\p@ }}
\@writefile{lot}{\addvspace {10\p@ }}
\@writefile{toc}{\contentsline {section}{\numberline {9.1}Reglas de Negocio}{28}{section.9.1}}
\@writefile{toc}{\contentsline {chapter}{\numberline {10}Pantallas}{29}{chapter.10}}
\@writefile{lof}{\addvspace {10\p@ }}
\@writefile{lot}{\addvspace {10\p@ }}
\@writefile{toc}{\contentsline {subsection}{\numberline {10.0.1}IU1-4 Pantalla Dar de Baja Programa acad\'emico}{29}{subsection.10.0.1}}
\@writefile{toc}{\contentsline {subsubsection}{Objetivo}{29}{subsubsection*.46}}
\@writefile{toc}{\contentsline {subsubsection}{Dise\~no}{29}{subsubsection*.47}}
\@writefile{toc}{\contentsline {subsubsection}{Salidas}{29}{subsubsection*.48}}
\@writefile{toc}{\contentsline {subsubsection}{Entradas}{29}{subsubsection*.49}}
\@writefile{toc}{\contentsline {subsubsection}{Comandos}{29}{subsubsection*.50}}
\@writefile{lof}{\contentsline {figure}{\numberline {10.1}{\ignorespaces UI1-4 Pantalla Dar de Baja Programa acad\'emico}}{30}{figure.10.1}}
\newlabel{UI1-4}{{10.1}{30}{UI1-4 Pantalla Dar de Baja Programa acad\'emico}{figure.10.1}{}}
\@writefile{toc}{\contentsline {subsubsection}{Mensajes}{30}{subsubsection*.51}}
\@writefile{toc}{\contentsline {subsection}{\numberline {10.0.2}IU1-4-1 Pantalla Dar de Baja Programa acad\'emico confirmaci\'on}{30}{subsection.10.0.2}}
\@writefile{toc}{\contentsline {subsubsection}{Objetivo}{30}{subsubsection*.52}}
\@writefile{toc}{\contentsline {subsubsection}{Dise\~no}{30}{subsubsection*.53}}
\@writefile{toc}{\contentsline {subsubsection}{Salidas}{30}{subsubsection*.54}}
\@writefile{lof}{\contentsline {figure}{\numberline {10.2}{\ignorespaces UI1-4 Pantalla Dar de Baja Programa acad\'emico}}{31}{figure.10.2}}
\newlabel{UI1-4}{{10.2}{31}{UI1-4 Pantalla Dar de Baja Programa acad\'emico}{figure.10.2}{}}
\@writefile{toc}{\contentsline {subsubsection}{Entradas}{31}{subsubsection*.55}}
\@writefile{toc}{\contentsline {subsubsection}{Comandos}{31}{subsubsection*.56}}
\@writefile{toc}{\contentsline {subsubsection}{Mensajes}{31}{subsubsection*.57}}
\@writefile{toc}{\contentsline {subsection}{\numberline {10.0.3}IU1-4-2 Pantalla Programas Acad\'emicos actualizados}{31}{subsection.10.0.3}}
\@writefile{toc}{\contentsline {subsubsection}{Objetivo}{31}{subsubsection*.58}}
\@writefile{lof}{\contentsline {figure}{\numberline {10.3}{\ignorespaces UI1-4-2 Pantalla Programas Acad\'emicos actualizados}}{32}{figure.10.3}}
\newlabel{UI1-4-2}{{10.3}{32}{UI1-4-2 Pantalla Programas Acad\'emicos actualizados}{figure.10.3}{}}
\@writefile{toc}{\contentsline {subsubsection}{Salidas}{32}{subsubsection*.59}}
\@writefile{toc}{\contentsline {subsubsection}{Entradas}{32}{subsubsection*.60}}
\@writefile{toc}{\contentsline {subsubsection}{Comandos}{32}{subsubsection*.61}}
\gdef \LT@v {\LT@entry 
    {1}{111.50314pt}\LT@entry 
    {1}{364.9pt}}
\@writefile{toc}{\contentsline {section}{\numberline {10.1}CU5-1 Registrar solicitud }{33}{section.10.1}}
\@writefile{toc}{\contentsline {subsection}{\numberline {10.1.1}Descripci\IeC {\'o}n completa}{33}{subsection.10.1.1}}
\@writefile{toc}{\contentsline {subsection}{\numberline {10.1.2}Atributos importantes}{33}{subsection.10.1.2}}
\@writefile{toc}{\contentsline {subsection}{\numberline {10.1.3}Trayectorias del Caso de Uso}{33}{subsection.10.1.3}}
\@writefile{toc}{\contentsline {chapter}{\numberline {11}Pantallas}{35}{chapter.11}}
\@writefile{lof}{\addvspace {10\p@ }}
\@writefile{lot}{\addvspace {10\p@ }}
\@writefile{toc}{\contentsline {subsection}{\numberline {11.0.1}IU5-1-1 Solicitudes}{36}{subsection.11.0.1}}
\@writefile{toc}{\contentsline {subsubsection}{Objetivo}{36}{subsubsection*.62}}
\@writefile{toc}{\contentsline {subsubsection}{Dise\~no}{36}{subsubsection*.63}}
\@writefile{lof}{\contentsline {figure}{\numberline {11.1}{\ignorespaces UI5-1-1 Solicitudes}}{36}{figure.11.1}}
\newlabel{UI5-1-1}{{11.1}{36}{UI5-1-1 Solicitudes}{figure.11.1}{}}
\@writefile{toc}{\contentsline {subsubsection}{Salidas}{36}{subsubsection*.64}}
\@writefile{toc}{\contentsline {subsubsection}{Entradas}{36}{subsubsection*.65}}
\@writefile{toc}{\contentsline {subsubsection}{Comandos}{36}{subsubsection*.66}}
\@writefile{toc}{\contentsline {subsection}{\numberline {11.0.2}IU5-1-2 Registrar solicitud}{37}{subsection.11.0.2}}
\@writefile{toc}{\contentsline {subsubsection}{Objetivo}{37}{subsubsection*.67}}
\@writefile{toc}{\contentsline {subsubsection}{Dise\~no}{37}{subsubsection*.68}}
\@writefile{lof}{\contentsline {figure}{\numberline {11.2}{\ignorespaces UI5-1-2 Registrar solicitud}}{37}{figure.11.2}}
\newlabel{UI5-1-2}{{11.2}{37}{UI5-1-2 Registrar solicitud}{figure.11.2}{}}
\@writefile{toc}{\contentsline {subsubsection}{Salidas}{37}{subsubsection*.69}}
\@writefile{toc}{\contentsline {subsubsection}{Entradas}{37}{subsubsection*.70}}
\@writefile{toc}{\contentsline {subsubsection}{Comandos}{37}{subsubsection*.71}}
\@writefile{toc}{\contentsline {subsection}{\numberline {11.0.3}IU5-1-3 Asignar responsable}{39}{subsection.11.0.3}}
\@writefile{toc}{\contentsline {subsubsection}{Objetivo}{39}{subsubsection*.72}}
\@writefile{toc}{\contentsline {subsubsection}{Dise\~no}{39}{subsubsection*.73}}
\@writefile{lof}{\contentsline {figure}{\numberline {11.3}{\ignorespaces UI5-1-3 Asignar responsable}}{39}{figure.11.3}}
\newlabel{UI5-1-3}{{11.3}{39}{UI5-1-3 Asignar responsable}{figure.11.3}{}}
\@writefile{toc}{\contentsline {subsubsection}{Salidas}{39}{subsubsection*.74}}
\@writefile{toc}{\contentsline {subsubsection}{Entradas}{39}{subsubsection*.75}}
\@writefile{toc}{\contentsline {subsubsection}{Comandos}{39}{subsubsection*.76}}
\@writefile{toc}{\contentsline {subsection}{\numberline {11.0.4}IU5-1-4 Responsable asignado}{41}{subsection.11.0.4}}
\@writefile{toc}{\contentsline {subsubsection}{Objetivo}{41}{subsubsection*.77}}
\@writefile{toc}{\contentsline {subsubsection}{Dise\~no}{41}{subsubsection*.78}}
\@writefile{lof}{\contentsline {figure}{\numberline {11.4}{\ignorespaces UI5-1-4 Responsable asignado}}{41}{figure.11.4}}
\newlabel{UI5-1-4}{{11.4}{41}{UI5-1-4 Responsable asignado}{figure.11.4}{}}
\@writefile{toc}{\contentsline {subsubsection}{Salidas}{41}{subsubsection*.79}}
\@writefile{toc}{\contentsline {subsubsection}{Entradas}{41}{subsubsection*.80}}
\@writefile{toc}{\contentsline {subsubsection}{Comandos}{41}{subsubsection*.81}}
\@writefile{toc}{\contentsline {subsection}{\numberline {11.0.5}IU5-1-5 Solicitud registrada}{42}{subsection.11.0.5}}
\@writefile{toc}{\contentsline {subsubsection}{Objetivo}{42}{subsubsection*.82}}
\@writefile{toc}{\contentsline {subsubsection}{Dise\~no}{42}{subsubsection*.83}}
\@writefile{lof}{\contentsline {figure}{\numberline {11.5}{\ignorespaces UI5-1-5 Solicitud registrada}}{42}{figure.11.5}}
\newlabel{UI5-1-5}{{11.5}{42}{UI5-1-5 Solicitud registrada}{figure.11.5}{}}
\@writefile{toc}{\contentsline {subsubsection}{Salidas}{42}{subsubsection*.84}}
\@writefile{toc}{\contentsline {subsubsection}{Entradas}{42}{subsubsection*.85}}
\@writefile{toc}{\contentsline {subsubsection}{Comandos}{42}{subsubsection*.86}}
\gdef \LT@vi {\LT@entry 
    {1}{111.50314pt}\LT@entry 
    {1}{364.9pt}}
\@writefile{toc}{\contentsline {section}{\numberline {11.1}CU5-2 Consultar solicitud }{43}{section.11.1}}
\@writefile{toc}{\contentsline {subsection}{\numberline {11.1.1}Descripci\IeC {\'o}n completa}{43}{subsection.11.1.1}}
\@writefile{toc}{\contentsline {subsection}{\numberline {11.1.2}Atributos importantes}{43}{subsection.11.1.2}}
\@writefile{toc}{\contentsline {subsection}{\numberline {11.1.3}Trayectorias del Caso de Uso}{43}{subsection.11.1.3}}
\@writefile{toc}{\contentsline {chapter}{\numberline {12}Pantallas}{44}{chapter.12}}
\@writefile{lof}{\addvspace {10\p@ }}
\@writefile{lot}{\addvspace {10\p@ }}
\@writefile{toc}{\contentsline {subsection}{\numberline {12.0.1}IU5-2-1 Visualizar solicitudes}{45}{subsection.12.0.1}}
\@writefile{toc}{\contentsline {subsubsection}{Objetivo}{45}{subsubsection*.87}}
\@writefile{toc}{\contentsline {subsubsection}{Dise\~no}{45}{subsubsection*.88}}
\@writefile{lof}{\contentsline {figure}{\numberline {12.1}{\ignorespaces UI5-2-1 Visualizar solicitudes}}{45}{figure.12.1}}
\newlabel{UI5-2-1}{{12.1}{45}{UI5-2-1 Visualizar solicitudes}{figure.12.1}{}}
\@writefile{toc}{\contentsline {subsubsection}{Salidas}{45}{subsubsection*.89}}
\@writefile{toc}{\contentsline {subsubsection}{Entradas}{45}{subsubsection*.90}}
\@writefile{toc}{\contentsline {subsection}{\numberline {12.0.2}IU5-2-2 Visualizar solicitud}{46}{subsection.12.0.2}}
\@writefile{toc}{\contentsline {subsubsection}{Objetivo}{46}{subsubsection*.91}}
\@writefile{toc}{\contentsline {subsubsection}{Dise\~no}{46}{subsubsection*.92}}
\@writefile{lof}{\contentsline {figure}{\numberline {12.2}{\ignorespaces UI5-2-2 Visualizar solicitud}}{46}{figure.12.2}}
\newlabel{UI5-2-2}{{12.2}{46}{UI5-2-2 Visualizar solicitud}{figure.12.2}{}}
\@writefile{toc}{\contentsline {subsubsection}{Salidas}{46}{subsubsection*.93}}
\@writefile{toc}{\contentsline {subsubsection}{Entradas}{46}{subsubsection*.94}}
\gdef \LT@vii {\LT@entry 
    {1}{111.50314pt}\LT@entry 
    {1}{364.9pt}}
\@writefile{toc}{\contentsline {section}{\numberline {12.1}CU5-3 Asignar Responsable}{47}{section.12.1}}
\@writefile{toc}{\contentsline {subsection}{\numberline {12.1.1}Descripci\IeC {\'o}n completa}{47}{subsection.12.1.1}}
\@writefile{toc}{\contentsline {subsection}{\numberline {12.1.2}Atributos importantes}{47}{subsection.12.1.2}}
\@writefile{toc}{\contentsline {subsection}{\numberline {12.1.3}Trayectorias del Caso de Uso}{47}{subsection.12.1.3}}
\@writefile{toc}{\contentsline {chapter}{\numberline {13}Pantallas}{49}{chapter.13}}
\@writefile{lof}{\addvspace {10\p@ }}
\@writefile{lot}{\addvspace {10\p@ }}
\@writefile{toc}{\contentsline {subsection}{\numberline {13.0.1}UI5-3-0 Menu Principal}{50}{subsection.13.0.1}}
\@writefile{toc}{\contentsline {subsubsection}{Objetivo}{50}{subsubsection*.95}}
\@writefile{toc}{\contentsline {subsubsection}{Dise\~no}{50}{subsubsection*.96}}
\@writefile{lof}{\contentsline {figure}{\numberline {13.1}{\ignorespaces UI5-3-0 Menu Principal}}{50}{figure.13.1}}
\newlabel{UI5-3-0}{{13.1}{50}{UI5-3-0 Menu Principal}{figure.13.1}{}}
\@writefile{toc}{\contentsline {subsubsection}{Salidas}{50}{subsubsection*.97}}
\@writefile{toc}{\contentsline {subsection}{\numberline {13.0.2}UI5-3-1 Pantalla Asignar Responsable}{50}{subsection.13.0.2}}
\@writefile{toc}{\contentsline {subsubsection}{Objetivo}{50}{subsubsection*.98}}
\@writefile{toc}{\contentsline {subsubsection}{Dise\~no}{51}{subsubsection*.99}}
\@writefile{lof}{\contentsline {figure}{\numberline {13.2}{\ignorespaces UI5-3-1 Asignar un Responsable}}{51}{figure.13.2}}
\newlabel{UI5-3-1}{{13.2}{51}{UI5-3-1 Asignar un Responsable}{figure.13.2}{}}
\@writefile{toc}{\contentsline {subsubsection}{Entradas}{51}{subsubsection*.100}}
\@writefile{toc}{\contentsline {subsection}{\numberline {13.0.3}UI5-3-2 Pantalla campos obligatorios}{51}{subsection.13.0.3}}
\@writefile{toc}{\contentsline {subsubsection}{Objetivo}{51}{subsubsection*.101}}
\@writefile{toc}{\contentsline {subsubsection}{Dise\~no}{51}{subsubsection*.102}}
\@writefile{toc}{\contentsline {subsubsection}{Salidas}{51}{subsubsection*.103}}
\@writefile{lof}{\contentsline {figure}{\numberline {13.3}{\ignorespaces UI5-3-3 Campos Obligatorios}}{52}{figure.13.3}}
\newlabel{UI5-3-3}{{13.3}{52}{UI5-3-3 Campos Obligatorios}{figure.13.3}{}}
\@writefile{toc}{\contentsline {subsubsection}{Entradas}{52}{subsubsection*.104}}
\@writefile{toc}{\contentsline {subsection}{\numberline {13.0.4}UI5-3-3 Pantalla Datos guardados del responsable}{52}{subsection.13.0.4}}
\@writefile{toc}{\contentsline {subsubsection}{Objetivo}{52}{subsubsection*.105}}
\@writefile{toc}{\contentsline {subsubsection}{Dise\~no}{52}{subsubsection*.106}}
\@writefile{toc}{\contentsline {subsubsection}{Salidas}{52}{subsubsection*.107}}
\@writefile{toc}{\contentsline {subsubsection}{Entradas}{52}{subsubsection*.108}}
\@writefile{lof}{\contentsline {figure}{\numberline {13.4}{\ignorespaces UI5-3-4 Responsable asignado}}{53}{figure.13.4}}
\newlabel{UI5-3-4}{{13.4}{53}{UI5-3-4 Responsable asignado}{figure.13.4}{}}
\@writefile{toc}{\contentsline {subsection}{\numberline {13.0.5}UI5-3-4 Pantalla cancelar operaci\'on}{53}{subsection.13.0.5}}
\@writefile{toc}{\contentsline {subsubsection}{Objetivo}{53}{subsubsection*.109}}
\@writefile{toc}{\contentsline {subsubsection}{Dise\~no}{53}{subsubsection*.110}}
\@writefile{toc}{\contentsline {subsubsection}{Salidas}{53}{subsubsection*.111}}
\@writefile{toc}{\contentsline {subsubsection}{Entradas}{53}{subsubsection*.112}}
\@writefile{toc}{\contentsline {subsection}{\numberline {13.0.6}UI5-3-5 Responsable Asignado}{53}{subsection.13.0.6}}
\@writefile{lof}{\contentsline {figure}{\numberline {13.5}{\ignorespaces UI5-3-5 Abandonar Operaci\'on}}{54}{figure.13.5}}
\newlabel{UI5-3-5}{{13.5}{54}{UI5-3-5 Abandonar Operaci\'on}{figure.13.5}{}}
\@writefile{toc}{\contentsline {subsubsection}{Objetivo}{54}{subsubsection*.113}}
\@writefile{toc}{\contentsline {subsubsection}{Dise\~no}{54}{subsubsection*.114}}
\gdef \LT@viii {\LT@entry 
    {1}{111.50314pt}\LT@entry 
    {1}{364.9pt}}
\@writefile{lof}{\contentsline {figure}{\numberline {13.6}{\ignorespaces UI5-3-6 Solicitud con \'exito}}{55}{figure.13.6}}
\newlabel{UI5-3-6}{{13.6}{55}{UI5-3-6 Solicitud con \'exito}{figure.13.6}{}}
\@writefile{toc}{\contentsline {section}{\numberline {13.1}CU5.4 Modificar responsable }{55}{section.13.1}}
\@writefile{toc}{\contentsline {subsection}{\numberline {13.1.1}Descripci\IeC {\'o}n completa}{55}{subsection.13.1.1}}
\@writefile{toc}{\contentsline {subsection}{\numberline {13.1.2}Atributos importantes}{55}{subsection.13.1.2}}
\@writefile{toc}{\contentsline {subsection}{\numberline {13.1.3}Trayectorias del Caso de Uso}{56}{subsection.13.1.3}}
\@writefile{toc}{\contentsline {chapter}{\numberline {14}Pantallas}{57}{chapter.14}}
\@writefile{lof}{\addvspace {10\p@ }}
\@writefile{lot}{\addvspace {10\p@ }}
\@writefile{toc}{\contentsline {subsection}{\numberline {14.0.1}IU5-4-1 Editar responsable}{58}{subsection.14.0.1}}
\@writefile{toc}{\contentsline {subsubsection}{Objetivo}{58}{subsubsection*.115}}
\@writefile{toc}{\contentsline {subsubsection}{Dise\~no}{58}{subsubsection*.116}}
\@writefile{lof}{\contentsline {figure}{\numberline {14.1}{\ignorespaces UI5-4-1 Editar responsable}}{58}{figure.14.1}}
\newlabel{UI5-4-1}{{14.1}{58}{UI5-4-1 Editar responsable}{figure.14.1}{}}
\@writefile{toc}{\contentsline {subsubsection}{Salidas}{58}{subsubsection*.117}}
\@writefile{toc}{\contentsline {subsubsection}{Entradas}{58}{subsubsection*.118}}
\@writefile{toc}{\contentsline {subsection}{\numberline {14.0.2}IU5-4-2 Confirmaci\'on editar responsable}{59}{subsection.14.0.2}}
\@writefile{toc}{\contentsline {subsubsection}{Objetivo}{59}{subsubsection*.119}}
\@writefile{toc}{\contentsline {subsubsection}{Dise\~no}{59}{subsubsection*.120}}
\@writefile{lof}{\contentsline {figure}{\numberline {14.2}{\ignorespaces UI5-4-2 Confirmaci\'on editar responsable}}{59}{figure.14.2}}
\newlabel{UI5-4-2}{{14.2}{59}{UI5-4-2 Confirmaci\'on editar responsable}{figure.14.2}{}}
\@writefile{toc}{\contentsline {subsubsection}{Salidas}{59}{subsubsection*.121}}
\@writefile{toc}{\contentsline {subsubsection}{Entradas}{59}{subsubsection*.122}}
\@writefile{toc}{\contentsline {subsubsection}{Comandos}{59}{subsubsection*.123}}
\gdef \LT@ix {\LT@entry 
    {1}{111.50314pt}\LT@entry 
    {1}{364.9pt}}
\@writefile{toc}{\contentsline {section}{\numberline {14.1}CU5-5 Dar de baja solicitud}{60}{section.14.1}}
\@writefile{toc}{\contentsline {subsection}{\numberline {14.1.1}Descripci\IeC {\'o}n completa}{60}{subsection.14.1.1}}
\@writefile{toc}{\contentsline {subsection}{\numberline {14.1.2}Atributos importantes}{60}{subsection.14.1.2}}
\@writefile{toc}{\contentsline {subsection}{\numberline {14.1.3}Trayectorias del Caso de Uso}{60}{subsection.14.1.3}}
\newlabel{Solicitudes}{{1}{60}{Comandos}{Item.76}{}}
\@writefile{toc}{\contentsline {chapter}{\numberline {15}Pantallas}{62}{chapter.15}}
\@writefile{lof}{\addvspace {10\p@ }}
\@writefile{lot}{\addvspace {10\p@ }}
\@writefile{toc}{\contentsline {subsection}{\numberline {15.0.1}IU5-5 Solicitudes}{62}{subsection.15.0.1}}
\@writefile{toc}{\contentsline {subsubsection}{Objetivo}{62}{subsubsection*.124}}
\@writefile{toc}{\contentsline {subsubsection}{Dise\~no}{62}{subsubsection*.125}}
\@writefile{toc}{\contentsline {subsubsection}{Salidas}{62}{subsubsection*.126}}
\@writefile{toc}{\contentsline {subsubsection}{Comandos}{62}{subsubsection*.127}}
\@writefile{toc}{\contentsline {subsection}{\numberline {15.0.2}IU5-5-1 Pantalla Dar de Baja solicitud}{62}{subsection.15.0.2}}
\@writefile{toc}{\contentsline {subsubsection}{Objetivo}{62}{subsubsection*.128}}
\@writefile{toc}{\contentsline {subsubsection}{Dise\~no}{62}{subsubsection*.129}}
\@writefile{lof}{\contentsline {figure}{\numberline {15.1}{\ignorespaces UI5-5 Solicitudes}}{63}{figure.15.1}}
\newlabel{UI5-5}{{15.1}{63}{UI5-5 Solicitudes}{figure.15.1}{}}
\@writefile{toc}{\contentsline {subsubsection}{Salidas}{63}{subsubsection*.130}}
\@writefile{toc}{\contentsline {subsubsection}{Entradas}{63}{subsubsection*.131}}
\@writefile{toc}{\contentsline {subsubsection}{Comandos}{63}{subsubsection*.132}}
\@writefile{toc}{\contentsline {subsubsection}{Mensajes}{63}{subsubsection*.133}}
\@writefile{toc}{\contentsline {subsection}{\numberline {15.0.3}IU5-5-2 Pantalla Dar de Baja solicitud confirmaci\'on}{63}{subsection.15.0.3}}
\@writefile{lof}{\contentsline {figure}{\numberline {15.2}{\ignorespaces UI5-5-1 Pantalla Dar de Baja solicitud}}{64}{figure.15.2}}
\newlabel{UI5-5-1}{{15.2}{64}{UI5-5-1 Pantalla Dar de Baja solicitud}{figure.15.2}{}}
\@writefile{toc}{\contentsline {subsubsection}{Objetivo}{64}{subsubsection*.134}}
\@writefile{toc}{\contentsline {subsubsection}{Dise\~no}{64}{subsubsection*.135}}
\@writefile{toc}{\contentsline {subsubsection}{Salidas}{64}{subsubsection*.136}}
\@writefile{toc}{\contentsline {subsubsection}{Entradas}{64}{subsubsection*.137}}
\@writefile{toc}{\contentsline {subsubsection}{Comandos}{64}{subsubsection*.138}}
\@writefile{lof}{\contentsline {figure}{\numberline {15.3}{\ignorespaces UI5-5-2 Pantalla Dar de Baja solicitud confirmaci\'on}}{65}{figure.15.3}}
\newlabel{UI5-5-2}{{15.3}{65}{UI5-5-2 Pantalla Dar de Baja solicitud confirmaci\'on}{figure.15.3}{}}
\@writefile{toc}{\contentsline {subsubsection}{Mensajes}{65}{subsubsection*.139}}
>>>>>>> Arturo-Analisis
